<?xml version="1.0" encoding="iso-8859-1"?>
<!-- Generator: Adobe Illustrator 16.0.0, SVG Export Plug-In . SVG Version: 6.00 Build 0)  -->
<!DOCTYPE svg PUBLIC "-//W3C//DTD SVG 1.1//EN" "http://www.w3.org/Graphics/SVG/1.1/DTD/svg11.dtd">
<svg version="1.1" id="Capa_1" xmlns="http://www.w3.org/2000/svg" xmlns:xlink="http://www.w3.org/1999/xlink" x="0px" y="0px"
	 width="392.189px" height="392.189px" viewBox="0 0 392.189 392.189" style="enable-background:new 0 0 392.189 392.189;"
	 xml:space="preserve">
<g>
	<g>
		<g>
			<path d="M368.621,17.953H23.568C10.573,17.953,0,28.526,0,41.522v309.146c0,12.996,10.573,23.568,23.568,23.568h345.053
				c12.996,0,23.568-10.572,23.568-23.568V41.522C392.189,28.527,381.615,17.953,368.621,17.953z M297.561,57.53
				c0-4.806,3.896-8.703,8.701-8.703h8.703c4.808,0,8.703,3.896,8.703,8.703v9.863c0,4.806-3.896,8.702-8.703,8.702h-8.703
				c-4.805,0-8.701-3.896-8.701-8.702V57.53z M257.094,57.53c0-4.806,3.898-8.703,8.703-8.703h8.701
				c4.807,0,8.703,3.896,8.703,8.703v9.863c0,4.806-3.896,8.702-8.703,8.702h-8.701c-4.805,0-8.703-3.896-8.703-8.702V57.53z
				 M363.906,345.953H28.282V102.237h335.622v243.716H363.906z M364.133,67.393c0,4.806-3.896,8.702-8.701,8.702h-8.703
				c-4.807,0-8.702-3.896-8.702-8.702V57.53c0-4.806,3.896-8.703,8.702-8.703h8.703c4.806,0,8.701,3.896,8.701,8.703V67.393z"/>
			<path d="M327.734,280.276c-0.095-36.363-13.687-70.57-38.297-96.357c-24.892-26.08-58.041-40.443-93.342-40.443
				c-35.302,0-68.453,14.363-93.342,40.443c-24.698,25.877-38.299,60.234-38.299,96.738c0,1.933,1.567,3.5,3.5,3.5H92.59
				c1.933,0,3.5-1.567,3.5-3.5c0-58.199,44.862-105.546,100.006-105.546s100.004,47.348,100.004,105.546c0,1.933,1.568,3.5,3.5,3.5
				h24.636c0.008,0,0.014,0,0.021,0c1.933,0,3.5-1.567,3.5-3.5C327.756,280.528,327.748,280.401,327.734,280.276z"/>
			<path d="M206.619,239.102l-38.966-41.17c-0.872-0.921-2.27-1.099-3.343-0.429c-1.075,0.67-1.53,2.004-1.086,3.19l19.838,53.103
				c-2.993,7.172-2.352,15.277,1.782,21.903c6.994,11.211,21.802,14.644,33.013,7.648c11.212-6.992,14.643-21.803,7.649-33.014
				C221.375,243.708,214.377,239.57,206.619,239.102z"/>
		</g>
	</g>
</g>
<g>
</g>
<g>
</g>
<g>
</g>
<g>
</g>
<g>
</g>
<g>
</g>
<g>
</g>
<g>
</g>
<g>
</g>
<g>
</g>
<g>
</g>
<g>
</g>
<g>
</g>
<g>
</g>
<g>
</g>
</svg>
